<?xml version="1.0" encoding="UTF-8" ?>
<!--
  Copyright (c) 2010 Earth System Grid Federation
  ALL RIGHTS RESERVED. 
  U.S. Government sponsorship acknowledged.
  
  Redistribution and use in source and binary forms, with or without modification, are permitted provided that the following conditions are met:
  
  Redistributions of source code must retain the above copyright notice, this list of conditions and the following disclaimer.
  
  Redistributions in binary form must reproduce the above copyright notice, this list of conditions and the following disclaimer in the documentation and/or other materials provided with the distribution.
  
  Neither the name of the <ORGANIZATION> nor the names of its contributors may be used to endorse or promote products derived from this software without specific prior written permission.
  
  THIS SOFTWARE IS PROVIDED BY THE COPYRIGHT HOLDERS AND CONTRIBUTORS "AS IS" AND ANY EXPRESS OR IMPLIED WARRANTIES, INCLUDING, BUT NOT LIMITED TO, THE IMPLIED WARRANTIES OF MERCHANTABILITY AND FITNESS FOR A PARTICULAR PURPOSE ARE DISCLAIMED. 
  IN NO EVENT SHALL THE COPYRIGHT HOLDER OR CONTRIBUTORS BE LIABLE FOR ANY DIRECT, INDIRECT, INCIDENTAL, SPECIAL, EXEMPLARY, OR CONSEQUENTIAL DAMAGES 
  (INCLUDING, BUT NOT LIMITED TO, PROCUREMENT OF SUBSTITUTE GOODS OR SERVICES;  LOSS OF USE, DATA, OR PROFITS; OR BUSINESS INTERRUPTION)
  HOWEVER CAUSED AND ON ANY THEORY OF LIABILITY, WHETHER IN CONTRACT, STRICT LIABILITY, OR TORT (INCLUDING NEGLIGENCE OR OTHERWISE) ARISING IN ANY WAY OUT OF THE USE OF THIS SOFTWARE, EVEN IF ADVISED OF THE POSSIBILITY OF SUCH DAMAGE.
-->
<OAI-PMH xmlns="http://www.openarchives.org/OAI/2.0/" xmlns:xsi="http://www.w3.org/2001/XMLSchema-instance"
	xsi:schemaLocation="http://www.openarchives.org/OAI/2.0/
 http://www.openarchives.org/OAI/2.0/OAI-PMH.xsd">
	<responseDate>2010-05-10T14:20:15Z</responseDate>
	<request verb="ListRecords" metadataPrefix="oai_dif">http://mercury.ornl.gov/oai/provider</request>

	<ListRecords>


		<record>
			<header status="deleted">
				<identifier>oai:daac.ornl.gov:ornldaac_244</identifier>
				<datestamp>2009-11-03T17:29:24Z</datestamp>
			</header>

		</record>

		<record>
			<header status="deleted">
				<identifier>oai:daac.ornl.gov:ornldaac_355</identifier>
				<datestamp>2009-11-03T17:29:24Z</datestamp>
			</header>

		</record>

		<record>
			<header>
				<identifier>oai:daac.ornl.gov:ornldaac_1</identifier>
				<datestamp>2009-07-21T22:28:58Z</datestamp>
			</header>
			<metadata>
				<DIF xmlns:fo="http://www.w3.org/1999/XSL/Format">
					<Entry_ID>FIFE_STRM_15M</Entry_ID>
					<Entry_Title>15 MINUTE STREAM FLOW DATA: USGS (FIFE)</Entry_Title>
					<Data_Set_Citation>
						<Dataset_Creator>WOOD, E.F.</Dataset_Creator>
						<Dataset_Title>15 MINUTE STREAM FLOW DATA: USGS (FIFE)</Dataset_Title>
						<Dataset_Release_Date>2008</Dataset_Release_Date>
						<Dataset_Release_Place>Oak Ridge, Tennessee, U.S.A.</Dataset_Release_Place>
						<Dataset_Publisher>Oak Ridge National Laboratory Distributed
							Active Archive Center</Dataset_Publisher>
						<Version />
						<Data_Presentation_Form>Online Files</Data_Presentation_Form>
						<Other_Citation_Details>doi:10.3334/ORNLDAAC/1</Other_Citation_Details>
						<Online_Resource>1</Online_Resource>
					</Data_Set_Citation>
					<Summary>ABSTRACT: The Fifteen Minute Stream Flow Data from the
						USGS Data Set contains 15 minute stream flow data from the USGS
						station located 2.9 miles upstream from the mouth of Kings Creek.
						The record extends from April 1, 1979 through September 2, 1988.
						The purpose of this data set was to provide accurate measurements
						of the stream flow from Kings Creek so that a water budget
						analysis for the northwest quadrant of the FIFE study area could
						be performed. The stilling pipe installed at the USGS station
						operates on the principle that the water level in a standpipe at a
						specific location within a stream bed can be converted to a volume
						of water in the stream bed. The tracking of the change in stream
						height with time then enables the calculation of stream flow.</Summary>
					<Temporal_Coverage>
						<Start_Date>1984-12-25</Start_Date>
						<Stop_Date>1988-03-04</Stop_Date>
					</Temporal_Coverage>
					<Data_Set_Progress>COMPLETE</Data_Set_Progress>
					<Spatial_Coverage>
						<Southernmost_Latitude>39.1</Southernmost_Latitude>
						<Northernmost_Latitude>39.1</Northernmost_Latitude>
						<Westernmost_Longitude>-96.6</Westernmost_Longitude>
						<Easternmost_Longitude>-96.6</Easternmost_Longitude>
					</Spatial_Coverage>
					<Project>
						<Short_Name>ESIP</Short_Name>
						<Long_Name>Earth Science Information Partners Program</Long_Name>
					</Project>
					<Project>
						<Short_Name>EOSDIS</Short_Name>
						<Long_Name>Earth Observing System Data Information System</Long_Name>
					</Project>
					<Access_Constraints />
					<Use_Constraints />
					<Personnel>
						<Role>TECHNICAL CONTACT</Role>
						<First_Name />
						<Last_Name>WOOD, E.F.</Last_Name>
						<Contact_Address>
							ORNL DAAC USER SERVICES OFFICE
							OAK RIDGE NATIONAL LABORATORY
							OAK RIDGE, TENNESSEE 37831 USA</Contact_Address>
					</Personnel>
					<Personnel>
						<Role>DIF AUTHOR</Role>
						<Last_Name>ORNL DAAC User Services</Last_Name>
						<Email>ornldaac@ornl.gov</Email>
						<Phone>(865) 241-3952</Phone>
						<Fax>(865) 574-4665</Fax>
						<Contact_Address>
							<Address>ORNL DAAC User Services Office</Address>
							<Address>P.O. Box 2008, MS 6407</Address>
							<Address>Oak Ridge National Laboratory</Address>
							<City>Oak Ridge</City>
							<Province_or_State>Tennessee</Province_or_State>
							<Postal_Code>37831-6407</Postal_Code>
							<Country>USA</Country>
						</Contact_Address>
					</Personnel>
					<DIF_Creation_Date>2008-12-02</DIF_Creation_Date>
					<Data_Center>
						<Data_Center_Name>
							<Short_Name>ORNL_DAAC</Short_Name>
							<Long_Name>THE OAK RIDGE NATIONAL LABORATORY (ORNL) DISTRIBUTED
								ACTIVE ARCHIVE CENTER (DAAC)</Long_Name>
						</Data_Center_Name>
						<Data_Center_URL>http://daac.ornl.gov/</Data_Center_URL>
						<Data_Set_ID>1</Data_Set_ID>
						<Personnel>
							<Role>DATA CENTER CONTACT</Role>
							<Last_Name>ORNL DAAC USER SERVICES</Last_Name>
							<Email>ornldaac@ornl.gov</Email>
							<Phone>+1(865)241-3952</Phone>
							<Fax>+1(865)574-4665</Fax>
							<Contact_Address>
								<Address>ORNL DAAC USER SERVICES OFFICE</Address>
								<Address>P.O. Box 2008, MS 6407</Address>
								<Address>Oak Ridge National Laboratory</Address>
								<City>Oak Ridge</City>
								<Province_or_State>Tennessee</Province_or_State>
								<Postal_Code>37831-6407</Postal_Code>
								<Country>USA</Country>
							</Contact_Address>
						</Personnel>
					</Data_Center>
					<Sensor_Name>
						<Short_Name />
						<Long_Name>STILLING WELL </Long_Name>
					</Sensor_Name>
					<Source_Name>
						<Short_Name />
						<Long_Name>SURFACE WATER WEIR </Long_Name>
					</Source_Name>
					<Parameters>
						<Category>EARTH SCIENCE</Category>
						<Topic>HYDROSPHERE </Topic>
						<Term>SURFACE WATER </Term>
						<Variable_Level_1>DISCHARGE/FLOW </Variable_Level_1>
					</Parameters>
					<Sensor_Name>
						<Short_Name />
						<Long_Name>STILLING WELL </Long_Name>
					</Sensor_Name>
					<Source_Name>
						<Short_Name />
						<Long_Name>SURFACE WATER WEIR </Long_Name>
					</Source_Name>
					<Parameters>
						<Category>EARTH SCIENCE</Category>
						<Topic>HYDROSPHERE </Topic>
						<Term>SURFACE WATER </Term>
						<Variable_Level_1>STAGE HEIGHT </Variable_Level_1>
					</Parameters>
					<Keyword>EOSDIS</Keyword>
					<Keyword>HYDROLOGY</Keyword>
					<Keyword>STREAM DYNAMICS</Keyword>
					<Keyword>AQUATIC PROPERTIES</Keyword>
					<Related_URL>
						<URL_Content_Type>
							<Type>GET DATA</Type>
							<Subtype />
						</URL_Content_Type>
						<URL>http://daac.ornl.gov/cgi-bin/dsviewer.pl?ds_id=1</URL>
					</Related_URL>
					<Related_URL>
						<URL_Content_Type>
							<Type>VIEW RELATED INFORMATION</Type>
						</URL_Content_Type>
						<URL>http://daac.ornl.gov//FIFE/guides/15_min_strm_flow.html</URL>
						<Description>15 MINUTE STREAM FLOW DATA: USGS (FIFE)</Description>
					</Related_URL>
					<IDN_Node>
						<Short_Name>USA/NASA</Short_Name>
					</IDN_Node>
					<Data_Set_Language>ENGLISH</Data_Set_Language>
					<Originating_Metadata_Node>GCMD</Originating_Metadata_Node>
					<Metadata_Name>CEOS IDN DIF</Metadata_Name>
					<Metadata_Version>VERSION 9.0</Metadata_Version>
				</DIF>

			</metadata>
		</record>

		<record>
			<header>
				<identifier>oai:daac.ornl.gov:ornldaac_10</identifier>
				<datestamp>2009-07-21T22:28:58Z</datestamp>
			</header>
			<metadata>
				<DIF xmlns:fo="http://www.w3.org/1999/XSL/Format">
					<Entry_ID>FIFE_AF_RAW_K</Entry_ID>
					<Entry_Title>AIRCRAFT FLUX-RAW: U OF WY. (FIFE)</Entry_Title>
					<Data_Set_Citation>
						<Dataset_Creator>KELLY, R.D.</Dataset_Creator>
						<Dataset_Title>AIRCRAFT FLUX-RAW: U OF WY. (FIFE)</Dataset_Title>
						<Dataset_Release_Date>1994</Dataset_Release_Date>
						<Dataset_Release_Place>Oak Ridge, Tennessee, U.S.A.</Dataset_Release_Place>
						<Dataset_Publisher>Oak Ridge National Laboratory Distributed
							Active Archive Center</Dataset_Publisher>
						<Version />
						<Data_Presentation_Form>Online Files</Data_Presentation_Form>
						<Other_Citation_Details>doi:10.3334/ORNLDAAC/10</Other_Citation_Details>
						<Online_Resource>10</Online_Resource>
					</Data_Set_Citation>
					<Summary>ABSTRACT: The University of Wyoming (UW) King Air
						atmospheric boundary layer measurement missions were flown in 1987
						during IFCs 3 and 4. This Raw Boundary Layer Fluxes data set
						contains parameters that describe the environment in which the
						flux data were collected and the flux data itself. The
						fluctuations in all variables were calculated with three different
						methods (the arithmetic means removed, the linear trends removed,
						or filtered with a high-pass recursive filter) prior to the eddy
						correlation calculations. This data set contains the data with the
						arithmetic means removed (i.e., RAW). All the flux measurements
						were obtained with the eddy-correlation method, wherein the
						aircraft is equipped with an inertial platform, accelerometers,
						and a gust probe for measurement of earth-relative gusts in the x,
						y, and z directions. Gusts in these dimensions are then correlated
						with each other for momentum fluxes and with fluctuations in other
						variables to obtain the various scalar fluxes, such as temperature
						(for sensible heat flux) and water vapor mixing ratio (for latent
						heat flux). The summary of data calculated from each aircraft pass
						includes various statistics, correlations, and fluxes calculated
						after the time series for each variable with the arithmetic means
						removed.</Summary>
					<Temporal_Coverage>
						<Start_Date>1987-08-11</Start_Date>
						<Stop_Date>1989-10-31</Stop_Date>
					</Temporal_Coverage>
					<Data_Set_Progress>COMPLETE</Data_Set_Progress>
					<Spatial_Coverage>
						<Southernmost_Latitude>37</Southernmost_Latitude>
						<Northernmost_Latitude>40</Northernmost_Latitude>
						<Westernmost_Longitude>-102</Westernmost_Longitude>
						<Easternmost_Longitude>-95</Easternmost_Longitude>
					</Spatial_Coverage>
					<Project>
						<Short_Name>ESIP</Short_Name>
						<Long_Name>Earth Science Information Partners Program</Long_Name>
					</Project>
					<Project>
						<Short_Name>EOSDIS</Short_Name>
						<Long_Name>Earth Observing System Data Information System</Long_Name>
					</Project>
					<Access_Constraints />
					<Use_Constraints />
					<Personnel>
						<Role>TECHNICAL CONTACT</Role>
						<First_Name />
						<Last_Name>KELLY, R.D.</Last_Name>
						<Contact_Address>
							ORNL DAAC USER SERVICES OFFICE
							OAK RIDGE NATIONAL LABORATORY
							OAK RIDGE, TENNESSEE 37831 USA</Contact_Address>
					</Personnel>
					<Personnel>
						<Role>DIF AUTHOR</Role>
						<Last_Name>ORNL DAAC User Services</Last_Name>
						<Email>ornldaac@ornl.gov</Email>
						<Phone>(865) 241-3952</Phone>
						<Fax>(865) 574-4665</Fax>
						<Contact_Address>
							<Address>ORNL DAAC User Services Office</Address>
							<Address>P.O. Box 2008, MS 6407</Address>
							<Address>Oak Ridge National Laboratory</Address>
							<City>Oak Ridge</City>
							<Province_or_State>Tennessee</Province_or_State>
							<Postal_Code>37831-6407</Postal_Code>
							<Country>USA</Country>
						</Contact_Address>
					</Personnel>
					<DIF_Creation_Date>1994-07-24</DIF_Creation_Date>
					<Data_Center>
						<Data_Center_Name>
							<Short_Name>ORNL_DAAC</Short_Name>
							<Long_Name>THE OAK RIDGE NATIONAL LABORATORY (ORNL) DISTRIBUTED
								ACTIVE ARCHIVE CENTER (DAAC)</Long_Name>
						</Data_Center_Name>
						<Data_Center_URL>http://daac.ornl.gov/</Data_Center_URL>
						<Data_Set_ID>10</Data_Set_ID>
						<Personnel>
							<Role>DATA CENTER CONTACT</Role>
							<Last_Name>ORNL DAAC USER SERVICES</Last_Name>
							<Email>ornldaac@ornl.gov</Email>
							<Phone>+1(865)241-3952</Phone>
							<Fax>+1(865)574-4665</Fax>
							<Contact_Address>
								<Address>ORNL DAAC USER SERVICES OFFICE</Address>
								<Address>P.O. Box 2008, MS 6407</Address>
								<Address>Oak Ridge National Laboratory</Address>
								<City>Oak Ridge</City>
								<Province_or_State>Tennessee</Province_or_State>
								<Postal_Code>37831-6407</Postal_Code>
								<Country>USA</Country>
							</Contact_Address>
						</Personnel>
					</Data_Center>
					<Sensor_Name>
						<Short_Name />
						<Long_Name>INFRARED RADIOMETER </Long_Name>
					</Sensor_Name>
					<Source_Name>
						<Short_Name />
						<Long_Name>KINGAIR </Long_Name>
					</Source_Name>
					<Parameters>
						<Category>EARTH SCIENCE</Category>
						<Topic>ATMOSPHERE </Topic>
						<Term>ATMOSPHERIC TEMPERATURE </Term>
						<Variable_Level_1>AIR TEMPERATURE </Variable_Level_1>
					</Parameters>
					<Sensor_Name>
						<Short_Name />
						<Long_Name>PRESSURE TRANSDUCER </Long_Name>
					</Sensor_Name>
					<Source_Name>
						<Short_Name />
						<Long_Name>KINGAIR </Long_Name>
					</Source_Name>
					<Parameters>
						<Category>EARTH SCIENCE</Category>
						<Topic>ATMOSPHERE </Topic>
						<Term>ATMOSPHERIC PRESSURE </Term>
						<Variable_Level_1>ATMOSPHERIC PRESSURE MEASUREMENTS </Variable_Level_1>
					</Parameters>
					<Sensor_Name>
						<Short_Name />
						<Long_Name>PRESSURE TRANSDUCER </Long_Name>
					</Sensor_Name>
					<Source_Name>
						<Short_Name />
						<Long_Name>KINGAIR </Long_Name>
					</Source_Name>
					<Parameters>
						<Category>EARTH SCIENCE</Category>
						<Topic>ATMOSPHERE </Topic>
						<Term>ALTITUDE </Term>
						<Variable_Level_1>BAROMETRIC ALTITUDE </Variable_Level_1>
					</Parameters>
					<Sensor_Name>
						<Short_Name />
						<Long_Name>EDDY CORRELATION APPARATUS </Long_Name>
					</Sensor_Name>
					<Source_Name>
						<Short_Name />
						<Long_Name>KINGAIR </Long_Name>
					</Source_Name>
					<Parameters>
						<Category>EARTH SCIENCE</Category>
						<Topic>ATMOSPHERE </Topic>
						<Term>ATMOSPHERIC CHEMISTRY </Term>
						<Variable_Level_1>CARBON DIOXIDE </Variable_Level_1>
					</Parameters>
					<Sensor_Name>
						<Short_Name />
						<Long_Name>NDIR GAS ANALYZER </Long_Name>
					</Sensor_Name>
					<Source_Name>
						<Short_Name />
						<Long_Name>KINGAIR </Long_Name>
					</Source_Name>
					<Parameters>
						<Category>EARTH SCIENCE</Category>
						<Topic>ATMOSPHERE </Topic>
						<Term>ATMOSPHERIC CHEMISTRY </Term>
						<Variable_Level_1>CARBON DIOXIDE </Variable_Level_1>
					</Parameters>
					<Sensor_Name>
						<Short_Name />
						<Long_Name>RADIO ALTIMETER </Long_Name>
					</Sensor_Name>
					<Source_Name>
						<Short_Name />
						<Long_Name>KINGAIR </Long_Name>
					</Source_Name>
					<Parameters>
						<Category>EARTH SCIENCE</Category>
						<Topic>ATMOSPHERE </Topic>
						<Term>ALTITUDE </Term>
						<Variable_Level_1>GEOPOTENTIAL HEIGHT </Variable_Level_1>
					</Parameters>
					<Sensor_Name>
						<Short_Name />
						<Long_Name>EDDY CORRELATION APPARATUS </Long_Name>
					</Sensor_Name>
					<Source_Name>
						<Short_Name />
						<Long_Name>KINGAIR </Long_Name>
					</Source_Name>
					<Parameters>
						<Category>EARTH SCIENCE</Category>
						<Topic>ATMOSPHERE </Topic>
						<Term>ATMOSPHERIC RADIATION </Term>
						<Variable_Level_1>HEAT FLUX </Variable_Level_1>
					</Parameters>
					<Sensor_Name>
						<Short_Name />
						<Long_Name>PYRANOMETER </Long_Name>
					</Sensor_Name>
					<Source_Name>
						<Short_Name />
						<Long_Name>KINGAIR </Long_Name>
					</Source_Name>
					<Parameters>
						<Category>EARTH SCIENCE</Category>
						<Topic>ATMOSPHERE </Topic>
						<Term>ATMOSPHERIC RADIATION </Term>
						<Variable_Level_1>IRRADIANCE </Variable_Level_1>
					</Parameters>
					<Sensor_Name>
						<Short_Name />
						<Long_Name>HYGROMETER </Long_Name>
					</Sensor_Name>
					<Source_Name>
						<Short_Name />
						<Long_Name>KINGAIR </Long_Name>
					</Source_Name>
					<Parameters>
						<Category>EARTH SCIENCE</Category>
						<Topic>ATMOSPHERE </Topic>
						<Term>ATMOSPHERIC TEMPERATURE </Term>
						<Variable_Level_1>POTENTIAL TEMPERATURE </Variable_Level_1>
					</Parameters>
					<Sensor_Name>
						<Short_Name />
						<Long_Name>INFRARED RADIOMETER </Long_Name>
					</Sensor_Name>
					<Source_Name>
						<Short_Name />
						<Long_Name>KINGAIR </Long_Name>
					</Source_Name>
					<Parameters>
						<Category>EARTH SCIENCE</Category>
						<Topic>ATMOSPHERE </Topic>
						<Term>ATMOSPHERIC TEMPERATURE </Term>
						<Variable_Level_1>SURFACE AIR TEMPERATURE </Variable_Level_1>
					</Parameters>
					<Sensor_Name>
						<Short_Name />
						<Long_Name>WIND PROFILER </Long_Name>
					</Sensor_Name>
					<Source_Name>
						<Short_Name />
						<Long_Name>KINGAIR </Long_Name>
					</Source_Name>
					<Parameters>
						<Category>EARTH SCIENCE</Category>
						<Topic>ATMOSPHERE </Topic>
						<Term>ATMOSPHERIC WINDS </Term>
						<Variable_Level_1>SURFACE WINDS </Variable_Level_1>
					</Parameters>
					<Sensor_Name>
						<Short_Name />
						<Long_Name>WIND PROFILER </Long_Name>
					</Sensor_Name>
					<Source_Name>
						<Short_Name />
						<Long_Name>KINGAIR </Long_Name>
					</Source_Name>
					<Parameters>
						<Category>EARTH SCIENCE</Category>
						<Topic>ATMOSPHERE </Topic>
						<Term>ATMOSPHERIC WINDS </Term>
						<Variable_Level_1>UPPER LEVEL WINDS </Variable_Level_1>
					</Parameters>
					<Sensor_Name>
						<Short_Name />
						<Long_Name>ANALYSIS </Long_Name>
					</Sensor_Name>
					<Source_Name>
						<Short_Name />
						<Long_Name>KINGAIR </Long_Name>
					</Source_Name>
					<Parameters>
						<Category>EARTH SCIENCE</Category>
						<Topic>BIOSPHERE </Topic>
						<Term>VEGETATION </Term>
						<Variable_Level_1>VEGETATION COVER </Variable_Level_1>
					</Parameters>
					<Sensor_Name>
						<Short_Name />
						<Long_Name>HYGROMETER </Long_Name>
					</Sensor_Name>
					<Source_Name>
						<Short_Name />
						<Long_Name>KINGAIR </Long_Name>
					</Source_Name>
					<Parameters>
						<Category>EARTH SCIENCE</Category>
						<Topic>ATMOSPHERE </Topic>
						<Term>ATMOSPHERIC WATER VAPOR </Term>
						<Variable_Level_1>WATER VAPOR </Variable_Level_1>
					</Parameters>
					<Sensor_Name>
						<Short_Name />
						<Long_Name>NDIR GAS ANALYZER </Long_Name>
					</Sensor_Name>
					<Source_Name>
						<Short_Name />
						<Long_Name>KINGAIR </Long_Name>
					</Source_Name>
					<Parameters>
						<Category>EARTH SCIENCE</Category>
						<Topic>ATMOSPHERE </Topic>
						<Term>ATMOSPHERIC WATER VAPOR </Term>
						<Variable_Level_1>WATER VAPOR </Variable_Level_1>
					</Parameters>
					<Keyword>EOSDIS</Keyword>
					<Keyword>ATMOSPHERIC PROPERTIES</Keyword>
					<Keyword>ATMOSPHERIC BOUNDARY LAYER</Keyword>
					<Related_URL>
						<URL_Content_Type>
							<Type>GET DATA</Type>
							<Subtype />
						</URL_Content_Type>
						<URL>http://daac.ornl.gov/cgi-bin/dsviewer.pl?ds_id=10</URL>
					</Related_URL>
					<Related_URL>
						<URL_Content_Type>
							<Type>VIEW RELATED INFORMATION</Type>
						</URL_Content_Type>
						<URL>http://daac.ornl.gov//FIFE/guides/air_flux_raw_wy.html</URL>
						<Description>AIRCRAFT FLUX-RAW: U OF WY. (FIFE)</Description>
					</Related_URL>
					<IDN_Node>
						<Short_Name>USA/NASA</Short_Name>
					</IDN_Node>
					<Data_Set_Language>ENGLISH</Data_Set_Language>
					<Originating_Metadata_Node>GCMD</Originating_Metadata_Node>
					<Metadata_Name>CEOS IDN DIF</Metadata_Name>
					<Metadata_Version>VERSION 9.0</Metadata_Version>
				</DIF>

			</metadata>
		</record>

		<resumptionToken completeListSize="875" cursor="0">0/300/875/oai_dif/null/null/null</resumptionToken>

	</ListRecords>

</OAI-PMH> 




 


